…
    return(y)
  }

na_count(pml_train) %>% arrange(-prcnt)
## # A tibble: 100 × 3
##    variable                num_na prcnt
##    <chr>                    <int> <dbl>
##  1 skewness_roll_belt       19225  98.0
##  2 skewness_roll_dumbbell   19220  98.0
##  3 skewness_pitch_dumbbell  19217  97.9
##  4 kurtosis_roll_belt       19216  97.9
##  5 kurtosis_picth_belt      19216  97.9
##  6 kurtosis_yaw_belt        19216  97.9
##  7 skewness_roll_belt.1     19216  97.9
##  8 skewness_yaw_belt        19216  97.9
##  9 max_roll_belt            19216  97.9
## 10 max_picth_belt           19216  97.9
## # … with 90 more rows
…
